﻿{
  End: {
    console: {
      StdOut:
Mission #0 for client with id 'c3b76862-4265-f145-f871-85a362be27f0' ended on 
2024-06-18
,
      StdErr: 
    }
  },
  AsOf: 2024-06-17,
  List: {
    console: {
      StdOut:
┌────┬─────────────┬────────────┬────────────┬─────┬────────┐
│ Id │ Title       │ Start      │ End        │ TJ  │ Status │
├────┼─────────────┼────────────┼────────────┼─────┼────────┤
│ #0 │ Cacib - Dev │ 2024-06-09 │ 2024-06-18 │ 756 │ 🔄     │
└────┴─────────────┴────────────┴────────────┴─────┴────────┘
,
      StdErr: 
    }
  }
}